[api-updater (non-obsolete-error-filter)] 13/04/2022 8:47:17 a. m. : Starting C:/Program Files/Unity/Hub/Editor/2020.3.31f1/Editor/Data/Tools/ScriptUpdater/APIUpdater.NonObsoleteApiUpdaterDetector.exe
[api-updater (non-obsolete-error-filter)] 
----------------------------------
jit/startup time      : 2203.6015ms
moved types parse time: 213ms
candidates parse time : 3ms
C# parse time         : 1896ms
candidates check time : 67ms
console write time    : 1ms

